…
## 
## ℹ Use `spec()` to retrieve the full column specification for this data.
## ℹ Specify the column types or set `show_col_types = FALSE` to quiet this message.

Finally, I also wanted to use incumbency in the regression but I ran into issues with the scope of the data set and lack of incumbency data for 2022 so for now, I’m relying on the incumbency that has already been worked into the expert predictions and in future posts, I will make it stand out a bit more in accordance with Adam Brown.

## Warning in predict.lm(object = .x, newdata = as.data.frame(.y)): prediction from
## a rank-deficient fit may be misleading

## # A tibble: 94 × 3
##    state      district  pred
##    <chr>      <chr>    <dbl>
##  1 Alaska     AL        48.0
##  2 Arizona    1         51.3
##  3 Arizona    2         49.1
##  4 Arizona    6         48.2
##  5 California 21        48.3
##  6 California 22        60.1
##  7 California 25        58.3
##  8 California 26        54.8
##  9 California 3         49.0
## 10 California 45        51.9
## # … with 84 more rows
…
